<?xml version="1.0" encoding="UTF-8" standalone="no"?>
<!--Created by yFiles for HTML 2.1.0.5-->
<graphml xsi:schemaLocation="http://graphml.graphdrawing.org/xmlns http://www.yworks.com/xml/schema/graphml.html/2.0/ygraphml.xsd " xmlns="http://graphml.graphdrawing.org/xmlns" xmlns:demostyle="http://www.yworks.com/yFilesHTML/demos/FlatDemoStyle/1.0" xmlns:bpmn="http://www.yworks.com/xml/yfiles-for-html/bpmn/2.0" xmlns:demotablestyle="http://www.yworks.com/yFilesHTML/demos/FlatDemoTableStyle/1.0" xmlns:uml="http://www.yworks.com/yFilesHTML/demos/UMLDemoStyle/1.0" xmlns:compat="http://www.yworks.com/xml/yfiles-compat-arrows/1.0" xmlns:VuejsNodeStyle="http://www.yworks.com/demos/yfiles-vuejs-node-style/1.0" xmlns:y="http://www.yworks.com/xml/yfiles-common/3.0" xmlns:x="http://www.yworks.com/xml/yfiles-common/markup/3.0" xmlns:yjs="http://www.yworks.com/xml/yfiles-for-html/2.0/xaml" xmlns:xsi="http://www.w3.org/2001/XMLSchema-instance">
	<key id="d0" for="node" attr.type="boolean" attr.name="Expanded" y:attr.uri="http://www.yworks.com/xml/yfiles-common/2.0/folding/Expanded">
		<default>true</default>
	</key>
	<key id="d1" for="node" attr.type="string" attr.name="url"/>
	<key id="d2" for="node" attr.type="string" attr.name="description"/>
	<key id="d3" for="node" attr.name="NodeLabels" y:attr.uri="http://www.yworks.com/xml/yfiles-common/2.0/NodeLabels"/>
	<key id="d4" for="node" attr.name="NodeGeometry" y:attr.uri="http://www.yworks.com/xml/yfiles-common/2.0/NodeGeometry"/>
	<key id="d5" for="all" attr.name="UserTags" y:attr.uri="http://www.yworks.com/xml/yfiles-common/2.0/UserTags"/>
	<key id="d6" for="node" attr.name="NodeStyle" y:attr.uri="http://www.yworks.com/xml/yfiles-common/2.0/NodeStyle"/>
	<key id="d7" for="node" attr.name="NodeViewState" y:attr.uri="http://www.yworks.com/xml/yfiles-common/2.0/folding/1.1/NodeViewState"/>
	<key id="d8" for="edge" attr.type="string" attr.name="url"/>
	<key id="d9" for="edge" attr.type="string" attr.name="description"/>
	<key id="d10" for="edge" attr.name="EdgeLabels" y:attr.uri="http://www.yworks.com/xml/yfiles-common/2.0/EdgeLabels"/>
	<key id="d11" for="edge" attr.name="EdgeGeometry" y:attr.uri="http://www.yworks.com/xml/yfiles-common/2.0/EdgeGeometry"/>
	<key id="d12" for="edge" attr.name="EdgeStyle" y:attr.uri="http://www.yworks.com/xml/yfiles-common/2.0/EdgeStyle"/>
	<key id="d13" for="edge" attr.name="EdgeViewState" y:attr.uri="http://www.yworks.com/xml/yfiles-common/2.0/folding/1.1/EdgeViewState"/>
	<key id="d14" for="port" attr.name="PortLabels" y:attr.uri="http://www.yworks.com/xml/yfiles-common/2.0/PortLabels"/>
	<key id="d15" for="port" attr.name="PortLocationParameter" y:attr.uri="http://www.yworks.com/xml/yfiles-common/2.0/PortLocationParameter">
		<default>
			<x:Static Member="y:FreeNodePortLocationModel.NodeCenterAnchored"/>
		</default>
	</key>
	<key id="d16" for="port" attr.name="PortStyle" y:attr.uri="http://www.yworks.com/xml/yfiles-common/2.0/PortStyle">
		<default>
			<x:Static Member="y:VoidPortStyle.Instance"/>
		</default>
	</key>
	<key id="d17" for="port" attr.name="PortViewState" y:attr.uri="http://www.yworks.com/xml/yfiles-common/2.0/folding/1.1/PortViewState"/>
	<key id="d18" attr.name="SharedData" y:attr.uri="http://www.yworks.com/xml/yfiles-common/2.0/SharedData"/>
	<data key="d18">
		<y:SharedData>
			<yjs:Font x:Key="1" fontSize="19"/>
			<yjs:Stroke x:Key="2" fill="{y:GraphMLReference 3}"/>
			<yjs:SolidColorFill x:Key="3" color="DarkOrange"/>
			<yjs:Stroke x:Key="4" fill="{y:GraphMLReference 3}"/>
			<yjs:Stroke x:Key="5" fill="{y:GraphMLReference 3}"/>
			<yjs:Font x:Key="6" fontSize="21"/>
			<yjs:Font x:Key="7" fontSize="16"/>
			<yjs:Font x:Key="8" fontSize="21" textDecoration="UNDERLINE"/>
			<yjs:Font x:Key="9" fontSize="21" textDecoration="UNDERLINE"/>
			<y:RatioAnchoredLabelModelParameter x:Key="10" LayoutOffset="84.65634641624622,-12"/>
			<yjs:PolylineEdgeStyle x:Key="11" stroke="{y:GraphMLReference 12}"/>
			<yjs:Stroke x:Key="12" fill="BLACK" thickness="0.75"/>
			<y:SmartEdgeLabelModelParameter x:Key="13" Distance="5">
				<y:SmartEdgeLabelModelParameter.Model>
					<y:SmartEdgeLabelModel/>
				</y:SmartEdgeLabelModelParameter.Model>
			</y:SmartEdgeLabelModelParameter>
			<yjs:PolylineEdgeStyle x:Key="14" stroke="{y:GraphMLReference 12}"/>
		</y:SharedData>
	</data>
	<graph id="G" edgedefault="directed">
		<node id="n0">
			<data key="d3">
				<x:List>
					<y:Label LayoutParameter="{x:Static y:InteriorLabelModel.North}">
						<y:Label.Text>Empresa</y:Label.Text>
						<y:Label.Style>
							<yjs:DefaultLabelStyle verticalTextAlignment="CENTER" horizontalTextAlignment="CENTER" font="{y:GraphMLReference 1}" textFill="BLACK" textSize="19"/>
						</y:Label.Style>
					</y:Label>
				</x:List>
			</data>
			<data key="d4">
				<y:RectD X="-204.5" Y="-224" Width="109" Height="30"/>
			</data>
			<data key="d6">
				<yjs:ShapeNodeStyle stroke="{y:GraphMLReference 2}" fill="{y:GraphMLReference 3}"/>
			</data>
			<port name="p0"/>
			<port name="p1"/>
			<port name="p2"/>
			<port name="p3"/>
			<port name="p4"/>
		</node>
		<node id="n1">
			<data key="d3">
				<x:List>
					<y:Label LayoutParameter="{x:Static y:InteriorLabelModel.North}">
						<y:Label.Text>Equipo</y:Label.Text>
						<y:Label.Style>
							<yjs:DefaultLabelStyle verticalTextAlignment="CENTER" horizontalTextAlignment="CENTER" font="{y:GraphMLReference 1}" textFill="BLACK" textSize="19"/>
						</y:Label.Style>
					</y:Label>
				</x:List>
			</data>
			<data key="d4">
				<y:RectD X="407" Y="68" Width="109" Height="30"/>
			</data>
			<data key="d6">
				<yjs:ShapeNodeStyle stroke="{y:GraphMLReference 2}" fill="{y:GraphMLReference 3}"/>
			</data>
			<port name="p0"/>
			<port name="p1"/>
			<port name="p2"/>
			<port name="p3"/>
			<port name="p4"/>
		</node>
		<node id="n2">
			<data key="d3">
				<x:List>
					<y:Label LayoutParameter="{x:Static y:InteriorLabelModel.North}">
						<y:Label.Text>Cliente</y:Label.Text>
						<y:Label.Style>
							<yjs:DefaultLabelStyle verticalTextAlignment="CENTER" horizontalTextAlignment="CENTER" font="{y:GraphMLReference 1}" textFill="BLACK" textSize="19"/>
						</y:Label.Style>
					</y:Label>
				</x:List>
			</data>
			<data key="d4">
				<y:RectD X="-44.25" Y="68" Width="109" Height="30"/>
			</data>
			<data key="d6">
				<yjs:ShapeNodeStyle stroke="{y:GraphMLReference 2}" fill="{y:GraphMLReference 3}"/>
			</data>
			<port name="p0"/>
			<port name="p1"/>
			<port name="p2"/>
			<port name="p3"/>
			<port name="p4"/>
		</node>
		<node id="n3">
			<data key="d3">
				<x:List>
					<y:Label LayoutParameter="{x:Static y:InteriorLabelModel.North}">
						<y:Label.Text>Comercial</y:Label.Text>
						<y:Label.Style>
							<yjs:DefaultLabelStyle verticalTextAlignment="CENTER" horizontalTextAlignment="CENTER" font="{y:GraphMLReference 1}" textFill="BLACK" textSize="19"/>
						</y:Label.Style>
					</y:Label>
				</x:List>
			</data>
			<data key="d4">
				<y:RectD X="239.5" Y="-104" Width="109" Height="30"/>
			</data>
			<data key="d6">
				<yjs:ShapeNodeStyle stroke="{y:GraphMLReference 2}" fill="{y:GraphMLReference 3}"/>
			</data>
			<port name="p0"/>
			<port name="p1"/>
			<port name="p2"/>
		</node>
		<node id="n4">
			<data key="d3">
				<x:List>
					<y:Label LayoutParameter="{x:Static y:InteriorLabelModel.North}">
						<y:Label.Text>Técnico</y:Label.Text>
						<y:Label.Style>
							<yjs:DefaultLabelStyle verticalTextAlignment="CENTER" horizontalTextAlignment="CENTER" font="{y:GraphMLReference 1}" textFill="BLACK" textSize="19"/>
						</y:Label.Style>
					</y:Label>
				</x:List>
			</data>
			<data key="d4">
				<y:RectD X="407" Y="-104" Width="109" Height="30"/>
			</data>
			<data key="d6">
				<yjs:ShapeNodeStyle stroke="{y:GraphMLReference 2}" fill="{y:GraphMLReference 3}"/>
			</data>
			<port name="p0"/>
			<port name="p1"/>
			<port name="p2"/>
		</node>
		<node id="n5">
			<data key="d3">
				<x:List>
					<y:Label LayoutParameter="{x:Static y:InteriorLabelModel.North}">
						<y:Label.Text>Aeronave</y:Label.Text>
						<y:Label.Style>
							<yjs:DefaultLabelStyle verticalTextAlignment="CENTER" horizontalTextAlignment="CENTER" font="{y:GraphMLReference 1}" textFill="BLACK" textSize="19"/>
						</y:Label.Style>
					</y:Label>
				</x:List>
			</data>
			<data key="d4">
				<y:RectD X="-38.75" Y="-121.5" Width="109" Height="30"/>
			</data>
			<data key="d6">
				<yjs:ShapeNodeStyle stroke="{y:GraphMLReference 2}" fill="{y:GraphMLReference 3}"/>
			</data>
			<port name="p0"/>
			<port name="p1"/>
		</node>
		<node id="n6">
			<data key="d3">
				<x:List>
					<y:Label LayoutParameter="{x:Static y:InteriorLabelModel.North}">
						<y:Label.Text>Zona</y:Label.Text>
						<y:Label.Style>
							<yjs:DefaultLabelStyle verticalTextAlignment="CENTER" horizontalTextAlignment="CENTER" font="{y:GraphMLReference 1}" textFill="BLACK" textSize="19"/>
						</y:Label.Style>
					</y:Label>
				</x:List>
			</data>
			<data key="d4">
				<y:RectD X="239.5" Y="68" Width="109" Height="30"/>
			</data>
			<data key="d6">
				<yjs:ShapeNodeStyle stroke="{y:GraphMLReference 2}" fill="{y:GraphMLReference 3}"/>
			</data>
			<port name="p0"/>
			<port name="p1"/>
			<port name="p2"/>
			<port name="p3"/>
		</node>
		<node id="n7">
			<data key="d3">
				<x:List>
					<y:Label LayoutParameter="{x:Static y:InteriorLabelModel.North}">
						<y:Label.Text>Hangar</y:Label.Text>
						<y:Label.Style>
							<yjs:DefaultLabelStyle verticalTextAlignment="CENTER" horizontalTextAlignment="CENTER" font="{y:GraphMLReference 1}" textFill="BLACK" textSize="19"/>
						</y:Label.Style>
					</y:Label>
				</x:List>
			</data>
			<data key="d4">
				<y:RectD X="-204.5" Y="-18" Width="109" Height="30"/>
			</data>
			<data key="d6">
				<yjs:ShapeNodeStyle stroke="{y:GraphMLReference 2}" fill="{y:GraphMLReference 3}"/>
			</data>
			<port name="p0"/>
			<port name="p1"/>
			<port name="p2"/>
			<port name="p3"/>
			<port name="p4"/>
			<port name="p5"/>
			<port name="p6"/>
			<port name="p7"/>
		</node>
		<node id="n8">
			<data key="d3">
				<x:List>
					<y:Label LayoutParameter="{x:Static y:InteriorLabelModel.North}">
						<y:Label.Text>Cod</y:Label.Text>
						<y:Label.Style>
							<yjs:DefaultLabelStyle verticalTextAlignment="CENTER" horizontalTextAlignment="CENTER" font="{y:GraphMLReference 9}" textFill="BLACK" textSize="21"/>
						</y:Label.Style>
					</y:Label>
				</x:List>
			</data>
			<data key="d4">
				<y:RectD X="-316.5" Y="-224" Width="90" Height="30"/>
			</data>
			<data key="d6">
				<yjs:ShapeNodeStyle stroke="{y:GraphMLReference 4}" fill="{y:GraphMLReference 3}" shape="ELLIPSE"/>
			</data>
			<port name="p0"/>
		</node>
		<node id="n9">
			<data key="d3">
				<x:List>
					<y:Label LayoutParameter="{x:Static y:InteriorLabelModel.North}">
						<y:Label.Text>Nombre</y:Label.Text>
						<y:Label.Style>
							<yjs:DefaultLabelStyle verticalTextAlignment="CENTER" horizontalTextAlignment="CENTER" font="{y:GraphMLReference 6}" textFill="BLACK" textSize="21"/>
						</y:Label.Style>
					</y:Label>
				</x:List>
			</data>
			<data key="d4">
				<y:RectD X="-294.5" Y="-273" Width="90" Height="30"/>
			</data>
			<data key="d6">
				<yjs:ShapeNodeStyle stroke="{y:GraphMLReference 4}" fill="{y:GraphMLReference 3}" shape="ELLIPSE"/>
			</data>
			<port name="p0"/>
		</node>
		<node id="n10">
			<data key="d3">
				<x:List>
					<y:Label LayoutParameter="{x:Static y:InteriorLabelModel.North}">
						<y:Label.Text>Ciudad</y:Label.Text>
						<y:Label.Style>
							<yjs:DefaultLabelStyle verticalTextAlignment="CENTER" horizontalTextAlignment="CENTER" textFill="BLACK" textSize="21">
								<yjs:DefaultLabelStyle.font>
									<yjs:Font fontSize="21"/>
								</yjs:DefaultLabelStyle.font>
							</yjs:DefaultLabelStyle>
						</y:Label.Style>
					</y:Label>
				</x:List>
			</data>
			<data key="d4">
				<y:RectD X="-195" Y="-273" Width="90" Height="30"/>
			</data>
			<data key="d6">
				<yjs:ShapeNodeStyle stroke="{y:GraphMLReference 4}" fill="{y:GraphMLReference 3}" shape="ELLIPSE"/>
			</data>
			<port name="p0"/>
		</node>
		<node id="n11">
			<data key="d3">
				<x:List>
					<y:Label LayoutParameter="{x:Static y:InteriorLabelModel.North}">
						<y:Label.Text>Empleado</y:Label.Text>
						<y:Label.Style>
							<yjs:DefaultLabelStyle verticalTextAlignment="CENTER" horizontalTextAlignment="CENTER" font="{y:GraphMLReference 1}" textFill="BLACK" textSize="19"/>
						</y:Label.Style>
					</y:Label>
				</x:List>
			</data>
			<data key="d4">
				<y:RectD X="318.5" Y="-224" Width="109" Height="30"/>
			</data>
			<data key="d6">
				<yjs:ShapeNodeStyle stroke="{y:GraphMLReference 2}" fill="{y:GraphMLReference 3}"/>
			</data>
			<port name="p0"/>
			<port name="p1"/>
			<port name="p2"/>
			<port name="p3"/>
		</node>
		<node id="n12">
			<data key="d3">
				<x:List>
					<y:Label LayoutParameter="{x:Static y:InteriorLabelModel.North}">
						<y:Label.Text>Tiene</y:Label.Text>
						<y:Label.Style>
							<yjs:DefaultLabelStyle verticalTextAlignment="CENTER" horizontalTextAlignment="CENTER" font="{y:GraphMLReference 7}" textFill="BLACK" textSize="16"/>
						</y:Label.Style>
					</y:Label>
					<y:Label>
						<y:Label.Text>1:N</y:Label.Text>
						<y:Label.LayoutParameter>
							<y:RatioAnchoredLabelModelParameter LayoutOffset="40.046828611574796,-24"/>
						</y:Label.LayoutParameter>
						<y:Label.Style>
							<bpmn:AnnotationLabelStyle/>
						</y:Label.Style>
					</y:Label>
				</x:List>
			</data>
			<data key="d4">
				<y:RectD X="62.5" Y="-224" Width="98" Height="30"/>
			</data>
			<data key="d6">
				<yjs:ShapeNodeStyle stroke="{y:GraphMLReference 5}" fill="{y:GraphMLReference 3}" shape="DIAMOND"/>
			</data>
			<port name="p0"/>
			<port name="p1"/>
		</node>
		<node id="n13">
			<data key="d4">
				<y:RectD X="358" Y="-164" Width="30" Height="30"/>
			</data>
			<data key="d6">
				<yjs:ShapeNodeStyle stroke="{y:GraphMLReference 5}" fill="{y:GraphMLReference 3}" shape="DIAMOND"/>
			</data>
			<port name="p0"/>
			<port name="p1"/>
			<port name="p2"/>
		</node>
		<node id="n14">
			<data key="d3">
				<x:List>
					<y:Label LayoutParameter="{x:Static y:InteriorLabelModel.North}">
						<y:Label.Text>Cod</y:Label.Text>
						<y:Label.Style>
							<yjs:DefaultLabelStyle verticalTextAlignment="CENTER" horizontalTextAlignment="CENTER" font="{y:GraphMLReference 8}" textFill="BLACK" textSize="21"/>
						</y:Label.Style>
					</y:Label>
				</x:List>
			</data>
			<data key="d4">
				<y:RectD X="289.5" Y="-303" Width="90" Height="30"/>
			</data>
			<data key="d6">
				<yjs:ShapeNodeStyle stroke="{y:GraphMLReference 4}" fill="{y:GraphMLReference 3}" shape="ELLIPSE"/>
			</data>
			<port name="p0"/>
		</node>
		<node id="n15">
			<data key="d3">
				<x:List>
					<y:Label LayoutParameter="{x:Static y:InteriorLabelModel.North}">
						<y:Label.Text>Nombre</y:Label.Text>
						<y:Label.Style>
							<yjs:DefaultLabelStyle verticalTextAlignment="CENTER" horizontalTextAlignment="CENTER" font="{y:GraphMLReference 6}" textFill="BLACK" textSize="21"/>
						</y:Label.Style>
					</y:Label>
				</x:List>
			</data>
			<data key="d4">
				<y:RectD X="379.5" Y="-273" Width="90" Height="30"/>
			</data>
			<data key="d6">
				<yjs:ShapeNodeStyle stroke="{y:GraphMLReference 4}" fill="{y:GraphMLReference 3}" shape="ELLIPSE"/>
			</data>
			<port name="p0"/>
		</node>
		<node id="n16">
			<data key="d3">
				<x:List>
					<y:Label LayoutParameter="{x:Static y:InteriorLabelModel.North}">
						<y:Label.Text><![CDATA[Pertenece a]]></y:Label.Text>
						<y:Label.Style>
							<yjs:DefaultLabelStyle verticalTextAlignment="CENTER" horizontalTextAlignment="CENTER" font="{y:GraphMLReference 7}" textFill="BLACK" textSize="16"/>
						</y:Label.Style>
					</y:Label>
					<y:Label>
						<y:Label.Text>N:1</y:Label.Text>
						<y:Label.LayoutParameter>
							<y:RatioAnchoredLabelModelParameter LayoutOffset="73.4998286115748,18"/>
						</y:Label.LayoutParameter>
						<y:Label.Style>
							<bpmn:AnnotationLabelStyle/>
						</y:Label.Style>
					</y:Label>
				</x:List>
			</data>
			<data key="d4">
				<y:RectD X="362.25" Y="-18" Width="98" Height="30"/>
			</data>
			<data key="d6">
				<yjs:ShapeNodeStyle stroke="{y:GraphMLReference 5}" fill="{y:GraphMLReference 3}" shape="DIAMOND"/>
			</data>
			<port name="p0"/>
			<port name="p1"/>
		</node>
		<node id="n17">
			<data key="d3">
				<x:List>
					<y:Label LayoutParameter="{x:Static y:InteriorLabelModel.North}">
						<y:Label.Text>Cod</y:Label.Text>
						<y:Label.Style>
							<yjs:DefaultLabelStyle verticalTextAlignment="CENTER" horizontalTextAlignment="CENTER" font="{y:GraphMLReference 8}" textFill="BLACK" textSize="21"/>
						</y:Label.Style>
					</y:Label>
				</x:List>
			</data>
			<data key="d4">
				<y:RectD X="473.5" Y="125" Width="90" Height="30"/>
			</data>
			<data key="d6">
				<yjs:ShapeNodeStyle stroke="{y:GraphMLReference 4}" fill="{y:GraphMLReference 3}" shape="ELLIPSE"/>
			</data>
			<port name="p0"/>
		</node>
		<node id="n18">
			<data key="d3">
				<x:List>
					<y:Label LayoutParameter="{x:Static y:InteriorLabelModel.North}">
						<y:Label.Text>Tarea</y:Label.Text>
						<y:Label.Style>
							<yjs:DefaultLabelStyle verticalTextAlignment="CENTER" horizontalTextAlignment="CENTER" font="{y:GraphMLReference 6}" textFill="BLACK" textSize="21"/>
						</y:Label.Style>
					</y:Label>
				</x:List>
			</data>
			<data key="d4">
				<y:RectD X="524.75" Y="90" Width="90" Height="30"/>
			</data>
			<data key="d6">
				<yjs:ShapeNodeStyle stroke="{y:GraphMLReference 4}" fill="{y:GraphMLReference 3}" shape="ELLIPSE"/>
			</data>
			<port name="p0"/>
		</node>
		<node id="n19">
			<data key="d3">
				<x:List>
					<y:Label LayoutParameter="{x:Static y:InteriorLabelModel.North}">
						<y:Label.Text>Cod</y:Label.Text>
						<y:Label.Style>
							<yjs:DefaultLabelStyle verticalTextAlignment="CENTER" horizontalTextAlignment="CENTER" font="{y:GraphMLReference 9}" textFill="BLACK" textSize="21"/>
						</y:Label.Style>
					</y:Label>
				</x:List>
			</data>
			<data key="d4">
				<y:RectD X="-289" Y="-50" Width="90" Height="30"/>
			</data>
			<data key="d6">
				<yjs:ShapeNodeStyle stroke="{y:GraphMLReference 4}" fill="{y:GraphMLReference 3}" shape="ELLIPSE"/>
			</data>
			<port name="p0"/>
		</node>
		<node id="n20">
			<data key="d3">
				<x:List>
					<y:Label LayoutParameter="{x:Static y:InteriorLabelModel.North}">
						<y:Label.Text>Altura</y:Label.Text>
						<y:Label.Style>
							<yjs:DefaultLabelStyle verticalTextAlignment="CENTER" horizontalTextAlignment="CENTER" font="{y:GraphMLReference 6}" textFill="BLACK" textSize="21"/>
						</y:Label.Style>
					</y:Label>
				</x:List>
			</data>
			<data key="d4">
				<y:RectD X="-267.25" Y="73" Width="90" Height="30"/>
			</data>
			<data key="d6">
				<yjs:ShapeNodeStyle stroke="{y:GraphMLReference 4}" fill="{y:GraphMLReference 3}" shape="ELLIPSE"/>
			</data>
			<port name="p0"/>
		</node>
		<node id="n21">
			<data key="d3">
				<x:List>
					<y:Label LayoutParameter="{x:Static y:InteriorLabelModel.North}">
						<y:Label.Text>Anchura</y:Label.Text>
						<y:Label.Style>
							<yjs:DefaultLabelStyle verticalTextAlignment="CENTER" horizontalTextAlignment="CENTER" font="{y:GraphMLReference 6}" textFill="BLACK" textSize="21"/>
						</y:Label.Style>
					</y:Label>
				</x:List>
			</data>
			<data key="d4">
				<y:RectD X="-303.5" Y="31" Width="90" Height="30"/>
			</data>
			<data key="d6">
				<yjs:ShapeNodeStyle stroke="{y:GraphMLReference 4}" fill="{y:GraphMLReference 3}" shape="ELLIPSE"/>
			</data>
			<port name="p0"/>
		</node>
		<node id="n22">
			<data key="d3">
				<x:List>
					<y:Label LayoutParameter="{x:Static y:InteriorLabelModel.North}">
						<y:Label.Text>Profundidad</y:Label.Text>
						<y:Label.Style>
							<yjs:DefaultLabelStyle verticalTextAlignment="CENTER" horizontalTextAlignment="CENTER" font="{y:GraphMLReference 6}" textFill="BLACK" textSize="21"/>
						</y:Label.Style>
					</y:Label>
				</x:List>
			</data>
			<data key="d4">
				<y:RectD X="-339.5" Y="-4.5" Width="90" Height="30"/>
			</data>
			<data key="d6">
				<yjs:ShapeNodeStyle stroke="{y:GraphMLReference 4}" fill="{y:GraphMLReference 3}" shape="ELLIPSE"/>
			</data>
			<port name="p0"/>
		</node>
		<node id="n23">
			<data key="d3">
				<x:List>
					<y:Label LayoutParameter="{x:Static y:InteriorLabelModel.North}">
						<y:Label.Text><![CDATA[Dispone de]]></y:Label.Text>
						<y:Label.Style>
							<yjs:DefaultLabelStyle verticalTextAlignment="CENTER" horizontalTextAlignment="CENTER" font="{y:GraphMLReference 7}" textFill="BLACK" textSize="16"/>
						</y:Label.Style>
					</y:Label>
					<y:Label>
						<y:Label.Text>1:N</y:Label.Text>
						<y:Label.LayoutParameter>
							<y:RatioAnchoredLabelModelParameter LayoutOffset="83.6599143057874,18"/>
						</y:Label.LayoutParameter>
						<y:Label.Style>
							<bpmn:AnnotationLabelStyle/>
						</y:Label.Style>
					</y:Label>
				</x:List>
			</data>
			<data key="d4">
				<y:RectD X="-199" Y="-121.5" Width="98" Height="30"/>
			</data>
			<data key="d6">
				<yjs:ShapeNodeStyle stroke="{y:GraphMLReference 5}" fill="{y:GraphMLReference 3}" shape="DIAMOND"/>
			</data>
			<port name="p0"/>
			<port name="p1"/>
		</node>
		<node id="n24">
			<data key="d3">
				<x:List>
					<y:Label LayoutParameter="{x:Static y:InteriorLabelModel.North}">
						<y:Label.Text><![CDATA[Está en]]></y:Label.Text>
						<y:Label.Style>
							<yjs:DefaultLabelStyle verticalTextAlignment="CENTER" horizontalTextAlignment="CENTER" font="{y:GraphMLReference 7}" textFill="BLACK" textSize="16"/>
						</y:Label.Style>
					</y:Label>
					<y:Label>
						<y:Label.Text>N:1</y:Label.Text>
						<y:Label.LayoutParameter>
							<y:RatioAnchoredLabelModelParameter LayoutOffset="-14.340085694212604,3"/>
						</y:Label.LayoutParameter>
						<y:Label.Style>
							<bpmn:AnnotationLabelStyle/>
						</y:Label.Style>
					</y:Label>
				</x:List>
			</data>
			<data key="d4">
				<y:RectD X="245" Y="-18" Width="98" Height="30"/>
			</data>
			<data key="d6">
				<yjs:ShapeNodeStyle stroke="{y:GraphMLReference 5}" fill="{y:GraphMLReference 3}" shape="DIAMOND"/>
			</data>
			<port name="p0"/>
			<port name="p1"/>
		</node>
		<node id="n25">
			<data key="d3">
				<x:List>
					<y:Label LayoutParameter="{x:Static y:InteriorLabelModel.North}">
						<y:Label.Text>Telf</y:Label.Text>
						<y:Label.Style>
							<yjs:DefaultLabelStyle verticalTextAlignment="CENTER" horizontalTextAlignment="CENTER" font="{y:GraphMLReference 6}" textFill="BLACK" textSize="21"/>
						</y:Label.Style>
					</y:Label>
				</x:List>
			</data>
			<data key="d4">
				<y:RectD X="209.5" Y="-150" Width="90" Height="30"/>
			</data>
			<data key="d6">
				<yjs:ShapeNodeStyle stroke="{y:GraphMLReference 4}" fill="{y:GraphMLReference 3}" shape="ELLIPSE"/>
			</data>
			<port name="p0"/>
		</node>
		<node id="n26">
			<data key="d3">
				<x:List>
					<y:Label LayoutParameter="{x:Static y:InteriorLabelModel.North}">
						<y:Label.Text>Cod</y:Label.Text>
						<y:Label.Style>
							<yjs:DefaultLabelStyle verticalTextAlignment="CENTER" horizontalTextAlignment="CENTER" font="{y:GraphMLReference 8}" textFill="BLACK" textSize="21"/>
						</y:Label.Style>
					</y:Label>
				</x:List>
			</data>
			<data key="d4">
				<y:RectD X="292.5" Y="108" Width="90" Height="30"/>
			</data>
			<data key="d6">
				<yjs:ShapeNodeStyle stroke="{y:GraphMLReference 4}" fill="{y:GraphMLReference 3}" shape="ELLIPSE"/>
			</data>
			<port name="p0"/>
		</node>
		<node id="n27">
			<data key="d3">
				<x:List>
					<y:Label LayoutParameter="{x:Static y:InteriorLabelModel.North}">
						<y:Label.Text>Nombre</y:Label.Text>
						<y:Label.Style>
							<yjs:DefaultLabelStyle verticalTextAlignment="CENTER" horizontalTextAlignment="CENTER" font="{y:GraphMLReference 6}" textFill="BLACK" textSize="21"/>
						</y:Label.Style>
					</y:Label>
				</x:List>
			</data>
			<data key="d4">
				<y:RectD X="229.5" Y="148" Width="90" Height="30"/>
			</data>
			<data key="d6">
				<yjs:ShapeNodeStyle stroke="{y:GraphMLReference 4}" fill="{y:GraphMLReference 3}" shape="ELLIPSE"/>
			</data>
			<port name="p0"/>
		</node>
		<node id="n28">
			<data key="d3">
				<x:List>
					<y:Label LayoutParameter="{x:Static y:InteriorLabelModel.North}">
						<y:Label.Text>Telf</y:Label.Text>
						<y:Label.Style>
							<yjs:DefaultLabelStyle verticalTextAlignment="CENTER" horizontalTextAlignment="CENTER" font="{y:GraphMLReference 6}" textFill="BLACK" textSize="21"/>
						</y:Label.Style>
					</y:Label>
				</x:List>
			</data>
			<data key="d4">
				<y:RectD X="-65.75" Y="114" Width="90" Height="30"/>
			</data>
			<data key="d6">
				<yjs:ShapeNodeStyle stroke="{y:GraphMLReference 4}" fill="{y:GraphMLReference 3}" shape="ELLIPSE"/>
			</data>
			<port name="p0"/>
		</node>
		<node id="n29">
			<data key="d3">
				<x:List>
					<y:Label LayoutParameter="{x:Static y:InteriorLabelModel.North}">
						<y:Label.Text>Cod</y:Label.Text>
						<y:Label.Style>
							<yjs:DefaultLabelStyle verticalTextAlignment="CENTER" horizontalTextAlignment="CENTER" font="{y:GraphMLReference 8}" textFill="BLACK" textSize="21"/>
						</y:Label.Style>
					</y:Label>
				</x:List>
			</data>
			<data key="d4">
				<y:RectD X="44.25" Y="114" Width="90" Height="30"/>
			</data>
			<data key="d6">
				<yjs:ShapeNodeStyle stroke="{y:GraphMLReference 4}" fill="{y:GraphMLReference 3}" shape="ELLIPSE"/>
			</data>
			<port name="p0"/>
		</node>
		<node id="n30">
			<data key="d3">
				<x:List>
					<y:Label LayoutParameter="{x:Static y:InteriorLabelModel.North}">
						<y:Label.Text>Nombre</y:Label.Text>
						<y:Label.Style>
							<yjs:DefaultLabelStyle verticalTextAlignment="CENTER" horizontalTextAlignment="CENTER" font="{y:GraphMLReference 6}" textFill="BLACK" textSize="21"/>
						</y:Label.Style>
					</y:Label>
				</x:List>
			</data>
			<data key="d4">
				<y:RectD X="0" Y="154" Width="90" Height="30"/>
			</data>
			<data key="d6">
				<yjs:ShapeNodeStyle stroke="{y:GraphMLReference 4}" fill="{y:GraphMLReference 3}" shape="ELLIPSE"/>
			</data>
			<port name="p0"/>
		</node>
		<node id="n31">
			<data key="d3">
				<x:List>
					<y:Label LayoutParameter="{x:Static y:InteriorLabelModel.North}">
						<y:Label.Text><![CDATA[Pertenece a]]></y:Label.Text>
						<y:Label.Style>
							<yjs:DefaultLabelStyle verticalTextAlignment="CENTER" horizontalTextAlignment="CENTER" font="{y:GraphMLReference 7}" textFill="BLACK" textSize="16"/>
						</y:Label.Style>
					</y:Label>
					<y:Label>
						<y:Label.Text>N:1</y:Label.Text>
						<y:Label.LayoutParameter>
							<y:RatioAnchoredLabelModelParameter LayoutOffset="34.659914305787396,-24"/>
						</y:Label.LayoutParameter>
						<y:Label.Style>
							<bpmn:AnnotationLabelStyle/>
						</y:Label.Style>
					</y:Label>
				</x:List>
			</data>
			<data key="d4">
				<y:RectD X="107.5" Y="68" Width="98" Height="30"/>
			</data>
			<data key="d6">
				<yjs:ShapeNodeStyle stroke="{y:GraphMLReference 5}" fill="{y:GraphMLReference 3}" shape="DIAMOND"/>
			</data>
			<port name="p0"/>
			<port name="p1"/>
		</node>
		<node id="n32">
			<data key="d3">
				<x:List>
					<y:Label LayoutParameter="{x:Static y:InteriorLabelModel.North}">
						<y:Label.Text><![CDATA[Es mantenido]]></y:Label.Text>
						<y:Label.Style>
							<yjs:DefaultLabelStyle verticalTextAlignment="CENTER" horizontalTextAlignment="CENTER" font="{y:GraphMLReference 7}" textFill="BLACK" textSize="16"/>
						</y:Label.Style>
					</y:Label>
					<y:Label>
						<y:Label.Text>N:N</y:Label.Text>
						<y:Label.LayoutParameter>
							<y:RatioAnchoredLabelModelParameter LayoutOffset="33.663482195328584,-24"/>
						</y:Label.LayoutParameter>
						<y:Label.Style>
							<bpmn:AnnotationLabelStyle/>
						</y:Label.Style>
					</y:Label>
				</x:List>
			</data>
			<data key="d4">
				<y:RectD X="128.5" Y="240" Width="98" Height="30"/>
			</data>
			<data key="d6">
				<yjs:ShapeNodeStyle stroke="{y:GraphMLReference 5}" fill="{y:GraphMLReference 3}" shape="DIAMOND"/>
			</data>
			<port name="p0"/>
			<port name="p1"/>
		</node>
		<node id="n33">
			<data key="d3">
				<x:List>
					<y:Label LayoutParameter="{x:Static y:InteriorLabelModel.North}">
						<y:Label.Text>Aloja</y:Label.Text>
						<y:Label.Style>
							<yjs:DefaultLabelStyle verticalTextAlignment="CENTER" horizontalTextAlignment="CENTER" font="{y:GraphMLReference 7}" textFill="BLACK" textSize="16"/>
						</y:Label.Style>
					</y:Label>
					<y:Label LayoutParameter="{y:GraphMLReference 10}">
						<y:Label.Text>1:1</y:Label.Text>
						<y:Label.Style>
							<bpmn:AnnotationLabelStyle/>
						</y:Label.Style>
					</y:Label>
				</x:List>
			</data>
			<data key="d4">
				<y:RectD X="-38.75" Y="-69.75" Width="98" Height="30"/>
			</data>
			<data key="d6">
				<yjs:ShapeNodeStyle stroke="{y:GraphMLReference 5}" fill="{y:GraphMLReference 3}" shape="DIAMOND"/>
			</data>
			<port name="p0"/>
			<port name="p1"/>
		</node>
		<node id="n34">
			<data key="d3">
				<x:List>
					<y:Label LayoutParameter="{x:Static y:InteriorLabelModel.North}">
						<y:Label.Text>Cod</y:Label.Text>
						<y:Label.Style>
							<yjs:DefaultLabelStyle verticalTextAlignment="CENTER" horizontalTextAlignment="CENTER" font="{y:GraphMLReference 8}" textFill="BLACK" textSize="21"/>
						</y:Label.Style>
					</y:Label>
				</x:List>
			</data>
			<data key="d4">
				<y:RectD X="81.5" Y="-99.75" Width="90" Height="30"/>
			</data>
			<data key="d6">
				<yjs:ShapeNodeStyle stroke="{y:GraphMLReference 4}" fill="{y:GraphMLReference 3}" shape="ELLIPSE"/>
			</data>
			<port name="p0"/>
		</node>
		<node id="n35">
			<data key="d3">
				<x:List>
					<y:Label LayoutParameter="{x:Static y:InteriorLabelModel.North}">
						<y:Label.Text>Dirige</y:Label.Text>
						<y:Label.Style>
							<yjs:DefaultLabelStyle verticalTextAlignment="CENTER" horizontalTextAlignment="CENTER" font="{y:GraphMLReference 7}" textFill="BLACK" textSize="16"/>
						</y:Label.Style>
					</y:Label>
					<y:Label>
						<y:Label.Text>1:1</y:Label.Text>
						<y:Label.LayoutParameter>
							<y:RatioAnchoredLabelModelParameter LayoutOffset="84.65634641624627,3"/>
						</y:Label.LayoutParameter>
						<y:Label.Style>
							<bpmn:AnnotationLabelStyle/>
						</y:Label.Style>
					</y:Label>
				</x:List>
			</data>
			<data key="d4">
				<y:RectD X="479.5" Y="-18" Width="98" Height="30"/>
			</data>
			<data key="d6">
				<yjs:ShapeNodeStyle stroke="{y:GraphMLReference 5}" fill="{y:GraphMLReference 3}" shape="DIAMOND"/>
			</data>
			<port name="p0"/>
			<port name="p1"/>
		</node>
		<node id="n36">
			<data key="d3">
				<x:List>
					<y:Label LayoutParameter="{x:Static y:InteriorLabelModel.North}">
						<y:Label.Text><![CDATA[Se alquila]]></y:Label.Text>
						<y:Label.Style>
							<yjs:DefaultLabelStyle verticalTextAlignment="CENTER" horizontalTextAlignment="CENTER" font="{y:GraphMLReference 7}" textFill="BLACK" textSize="16"/>
						</y:Label.Style>
					</y:Label>
					<y:Label LayoutParameter="{y:GraphMLReference 10}">
						<y:Label.Text>N:1</y:Label.Text>
						<y:Label.Style>
							<bpmn:AnnotationLabelStyle/>
						</y:Label.Style>
					</y:Label>
				</x:List>
			</data>
			<data key="d4">
				<y:RectD X="-38.75" Y="13.75" Width="98" Height="30"/>
			</data>
			<data key="d6">
				<yjs:ShapeNodeStyle stroke="{y:GraphMLReference 5}" fill="{y:GraphMLReference 3}" shape="DIAMOND"/>
			</data>
			<port name="p0"/>
			<port name="p1"/>
		</node>
		<edge id="e0" source="n0" target="n10" sourceport="p0" targetport="p0">
			<data key="d12">
				<y:GraphMLReference ResourceKey="11"/>
			</data>
		</edge>
		<edge id="e1" source="n0" target="n9" sourceport="p1" targetport="p0">
			<data key="d12">
				<y:GraphMLReference ResourceKey="11"/>
			</data>
		</edge>
		<edge id="e2" source="n0" target="n8" sourceport="p2" targetport="p0">
			<data key="d12">
				<y:GraphMLReference ResourceKey="11"/>
			</data>
		</edge>
		<edge id="e3" source="n11" target="n13" sourceport="p0" targetport="p0">
			<data key="d12">
				<y:GraphMLReference ResourceKey="11"/>
			</data>
		</edge>
		<edge id="e4" source="n13" target="n3" sourceport="p1" targetport="p0">
			<data key="d12">
				<y:GraphMLReference ResourceKey="11"/>
			</data>
		</edge>
		<edge id="e5" source="n13" target="n4" sourceport="p2" targetport="p0">
			<data key="d12">
				<y:GraphMLReference ResourceKey="11"/>
			</data>
		</edge>
		<edge id="e6" source="n11" target="n15" sourceport="p1" targetport="p0">
			<data key="d12">
				<y:GraphMLReference ResourceKey="11"/>
			</data>
		</edge>
		<edge id="e7" source="n11" target="n14" sourceport="p2" targetport="p0">
			<data key="d12">
				<y:GraphMLReference ResourceKey="11"/>
			</data>
		</edge>
		<edge id="e8" source="n0" target="n12" sourceport="p3" targetport="p0">
			<data key="d10">
				<x:List>
					<y:Label LayoutParameter="{y:GraphMLReference 13}">
						<y:Label.Text>1:1</y:Label.Text>
						<y:Label.Style>
							<yjs:DefaultLabelStyle textFill="BLACK">
								<yjs:DefaultLabelStyle.font>
									<yjs:Font fontSize="12"/>
								</yjs:DefaultLabelStyle.font>
							</yjs:DefaultLabelStyle>
						</y:Label.Style>
					</y:Label>
				</x:List>
			</data>
			<data key="d12">
				<y:GraphMLReference ResourceKey="14"/>
			</data>
		</edge>
		<edge id="e9" source="n11" target="n12" sourceport="p3" targetport="p1">
			<data key="d10">
				<x:List>
					<y:Label LayoutParameter="{y:GraphMLReference 13}">
						<y:Label.Text>1:N</y:Label.Text>
						<y:Label.Style>
							<yjs:DefaultLabelStyle textFill="BLACK">
								<yjs:DefaultLabelStyle.font>
									<yjs:Font fontSize="12"/>
								</yjs:DefaultLabelStyle.font>
							</yjs:DefaultLabelStyle>
						</y:Label.Style>
					</y:Label>
				</x:List>
			</data>
			<data key="d12">
				<y:GraphMLReference ResourceKey="14"/>
			</data>
		</edge>
		<edge id="e10" source="n4" target="n16" sourceport="p1" targetport="p0">
			<data key="d10">
				<x:List>
					<y:Label LayoutParameter="{y:GraphMLReference 13}">
						<y:Label.Text>1:N</y:Label.Text>
						<y:Label.Style>
							<yjs:DefaultLabelStyle textFill="BLACK">
								<yjs:DefaultLabelStyle.font>
									<yjs:Font fontSize="12"/>
								</yjs:DefaultLabelStyle.font>
							</yjs:DefaultLabelStyle>
						</y:Label.Style>
					</y:Label>
				</x:List>
			</data>
			<data key="d12">
				<y:GraphMLReference ResourceKey="14"/>
			</data>
		</edge>
		<edge id="e11" source="n16" target="n1" sourceport="p1" targetport="p0">
			<data key="d10">
				<x:List>
					<y:Label LayoutParameter="{y:GraphMLReference 13}">
						<y:Label.Text>1:1</y:Label.Text>
						<y:Label.Style>
							<yjs:DefaultLabelStyle textFill="BLACK">
								<yjs:DefaultLabelStyle.font>
									<yjs:Font fontSize="12"/>
								</yjs:DefaultLabelStyle.font>
							</yjs:DefaultLabelStyle>
						</y:Label.Style>
					</y:Label>
				</x:List>
			</data>
			<data key="d12">
				<y:GraphMLReference ResourceKey="14"/>
			</data>
		</edge>
		<edge id="e12" source="n1" target="n17" sourceport="p1" targetport="p0">
			<data key="d12">
				<y:GraphMLReference ResourceKey="14"/>
			</data>
		</edge>
		<edge id="e13" source="n1" target="n18" sourceport="p2" targetport="p0">
			<data key="d12">
				<y:GraphMLReference ResourceKey="14"/>
			</data>
		</edge>
		<edge id="e14" source="n7" target="n19" sourceport="p0" targetport="p0">
			<data key="d12">
				<y:GraphMLReference ResourceKey="14"/>
			</data>
		</edge>
		<edge id="e15" source="n7" target="n20" sourceport="p1" targetport="p0">
			<data key="d12">
				<y:GraphMLReference ResourceKey="14"/>
			</data>
		</edge>
		<edge id="e16" source="n7" target="n21" sourceport="p2" targetport="p0">
			<data key="d12">
				<y:GraphMLReference ResourceKey="14"/>
			</data>
		</edge>
		<edge id="e17" source="n7" target="n22" sourceport="p3" targetport="p0">
			<data key="d12">
				<y:GraphMLReference ResourceKey="14"/>
			</data>
		</edge>
		<edge id="e18" source="n0" target="n23" sourceport="p4" targetport="p0">
			<data key="d10">
				<x:List>
					<y:Label LayoutParameter="{y:GraphMLReference 13}">
						<y:Label.Text>1:N</y:Label.Text>
						<y:Label.Style>
							<yjs:DefaultLabelStyle textFill="BLACK">
								<yjs:DefaultLabelStyle.font>
									<yjs:Font fontSize="12"/>
								</yjs:DefaultLabelStyle.font>
							</yjs:DefaultLabelStyle>
						</y:Label.Style>
					</y:Label>
				</x:List>
			</data>
			<data key="d12">
				<y:GraphMLReference ResourceKey="14"/>
			</data>
		</edge>
		<edge id="e19" source="n23" target="n7" sourceport="p1" targetport="p4">
			<data key="d10">
				<x:List>
					<y:Label LayoutParameter="{y:GraphMLReference 13}">
						<y:Label.Text>1:N</y:Label.Text>
						<y:Label.Style>
							<yjs:DefaultLabelStyle textFill="BLACK">
								<yjs:DefaultLabelStyle.font>
									<yjs:Font fontSize="12"/>
								</yjs:DefaultLabelStyle.font>
							</yjs:DefaultLabelStyle>
						</y:Label.Style>
					</y:Label>
				</x:List>
			</data>
			<data key="d12">
				<y:GraphMLReference ResourceKey="14"/>
			</data>
		</edge>
		<edge id="e20" source="n3" target="n24" sourceport="p1" targetport="p0">
			<data key="d10">
				<x:List>
					<y:Label LayoutParameter="{y:GraphMLReference 13}">
						<y:Label.Text>0:N</y:Label.Text>
						<y:Label.Style>
							<yjs:DefaultLabelStyle textFill="BLACK">
								<yjs:DefaultLabelStyle.font>
									<yjs:Font fontSize="12"/>
								</yjs:DefaultLabelStyle.font>
							</yjs:DefaultLabelStyle>
						</y:Label.Style>
					</y:Label>
				</x:List>
			</data>
			<data key="d12">
				<y:GraphMLReference ResourceKey="14"/>
			</data>
		</edge>
		<edge id="e21" source="n6" target="n24" sourceport="p0" targetport="p1">
			<data key="d10">
				<x:List>
					<y:Label LayoutParameter="{y:GraphMLReference 13}">
						<y:Label.Text>1:1</y:Label.Text>
						<y:Label.Style>
							<yjs:DefaultLabelStyle textFill="BLACK">
								<yjs:DefaultLabelStyle.font>
									<yjs:Font fontSize="12"/>
								</yjs:DefaultLabelStyle.font>
							</yjs:DefaultLabelStyle>
						</y:Label.Style>
					</y:Label>
				</x:List>
			</data>
			<data key="d12">
				<y:GraphMLReference ResourceKey="14"/>
			</data>
		</edge>
		<edge id="e22" source="n3" target="n25" sourceport="p2" targetport="p0">
			<data key="d12">
				<y:GraphMLReference ResourceKey="14"/>
			</data>
		</edge>
		<edge id="e23" source="n6" target="n26" sourceport="p1" targetport="p0">
			<data key="d12">
				<y:GraphMLReference ResourceKey="14"/>
			</data>
		</edge>
		<edge id="e24" source="n6" target="n27" sourceport="p2" targetport="p0">
			<data key="d12">
				<y:GraphMLReference ResourceKey="14"/>
			</data>
		</edge>
		<edge id="e25" source="n2" target="n28" sourceport="p0" targetport="p0">
			<data key="d12">
				<y:GraphMLReference ResourceKey="14"/>
			</data>
		</edge>
		<edge id="e26" source="n2" target="n29" sourceport="p1" targetport="p0">
			<data key="d12">
				<y:GraphMLReference ResourceKey="14"/>
			</data>
		</edge>
		<edge id="e27" source="n2" target="n30" sourceport="p2" targetport="p0">
			<data key="d12">
				<y:GraphMLReference ResourceKey="14"/>
			</data>
		</edge>
		<edge id="e28" source="n6" target="n31" sourceport="p3" targetport="p0">
			<data key="d10">
				<x:List>
					<y:Label LayoutParameter="{y:GraphMLReference 13}">
						<y:Label.Text>1:1</y:Label.Text>
						<y:Label.Style>
							<yjs:DefaultLabelStyle textFill="BLACK">
								<yjs:DefaultLabelStyle.font>
									<yjs:Font fontSize="12"/>
								</yjs:DefaultLabelStyle.font>
							</yjs:DefaultLabelStyle>
						</y:Label.Style>
					</y:Label>
				</x:List>
			</data>
			<data key="d12">
				<y:GraphMLReference ResourceKey="14"/>
			</data>
		</edge>
		<edge id="e29" source="n2" target="n31" sourceport="p3" targetport="p1">
			<data key="d10">
				<x:List>
					<y:Label LayoutParameter="{y:GraphMLReference 13}">
						<y:Label.Text>0:N</y:Label.Text>
						<y:Label.Style>
							<yjs:DefaultLabelStyle textFill="BLACK">
								<yjs:DefaultLabelStyle.font>
									<yjs:Font fontSize="12"/>
								</yjs:DefaultLabelStyle.font>
							</yjs:DefaultLabelStyle>
						</y:Label.Style>
					</y:Label>
				</x:List>
			</data>
			<data key="d12">
				<y:GraphMLReference ResourceKey="14"/>
			</data>
		</edge>
		<edge id="e30" source="n1" target="n32" sourceport="p3" targetport="p0">
			<data key="d10">
				<x:List>
					<y:Label LayoutParameter="{y:GraphMLReference 13}">
						<y:Label.Text>0:N</y:Label.Text>
						<y:Label.Style>
							<yjs:DefaultLabelStyle textFill="BLACK">
								<yjs:DefaultLabelStyle.font>
									<yjs:Font fontSize="12"/>
								</yjs:DefaultLabelStyle.font>
							</yjs:DefaultLabelStyle>
						</y:Label.Style>
					</y:Label>
				</x:List>
			</data>
			<data key="d11">
				<x:List>
					<y:Bend Location="461.5,255"/>
				</x:List>
			</data>
			<data key="d12">
				<y:GraphMLReference ResourceKey="14"/>
			</data>
		</edge>
		<edge id="e31" source="n32" target="n7" sourceport="p1" targetport="p5">
			<data key="d10">
				<x:List>
					<y:Label LayoutParameter="{y:GraphMLReference 13}">
						<y:Label.Text>0:N</y:Label.Text>
						<y:Label.Style>
							<yjs:DefaultLabelStyle textFill="BLACK">
								<yjs:DefaultLabelStyle.font>
									<yjs:Font fontSize="12"/>
								</yjs:DefaultLabelStyle.font>
							</yjs:DefaultLabelStyle>
						</y:Label.Style>
					</y:Label>
				</x:List>
			</data>
			<data key="d11">
				<x:List>
					<y:Bend Location="-150,255"/>
				</x:List>
			</data>
			<data key="d12">
				<y:GraphMLReference ResourceKey="14"/>
			</data>
		</edge>
		<edge id="e32" source="n7" target="n33" sourceport="p6" targetport="p0">
			<data key="d10">
				<x:List>
					<y:Label LayoutParameter="{y:GraphMLReference 13}">
						<y:Label.Text>0:1</y:Label.Text>
						<y:Label.Style>
							<yjs:DefaultLabelStyle textFill="BLACK">
								<yjs:DefaultLabelStyle.font>
									<yjs:Font fontSize="12"/>
								</yjs:DefaultLabelStyle.font>
							</yjs:DefaultLabelStyle>
						</y:Label.Style>
					</y:Label>
				</x:List>
			</data>
			<data key="d12">
				<y:GraphMLReference ResourceKey="14"/>
			</data>
		</edge>
		<edge id="e33" source="n5" target="n33" sourceport="p0" targetport="p1">
			<data key="d10">
				<x:List>
					<y:Label LayoutParameter="{y:GraphMLReference 13}">
						<y:Label.Text>0:1</y:Label.Text>
						<y:Label.Style>
							<yjs:DefaultLabelStyle textFill="BLACK">
								<yjs:DefaultLabelStyle.font>
									<yjs:Font fontSize="12"/>
								</yjs:DefaultLabelStyle.font>
							</yjs:DefaultLabelStyle>
						</y:Label.Style>
					</y:Label>
				</x:List>
			</data>
			<data key="d12">
				<y:GraphMLReference ResourceKey="14"/>
			</data>
		</edge>
		<edge id="e34" source="n5" target="n34" sourceport="p1" targetport="p0">
			<data key="d12">
				<y:GraphMLReference ResourceKey="14"/>
			</data>
		</edge>
		<edge id="e35" source="n4" target="n35" sourceport="p2" targetport="p0">
			<data key="d10">
				<x:List>
					<y:Label LayoutParameter="{y:GraphMLReference 13}">
						<y:Label.Text>1:1</y:Label.Text>
						<y:Label.Style>
							<yjs:DefaultLabelStyle textFill="BLACK">
								<yjs:DefaultLabelStyle.font>
									<yjs:Font fontSize="12"/>
								</yjs:DefaultLabelStyle.font>
							</yjs:DefaultLabelStyle>
						</y:Label.Style>
					</y:Label>
				</x:List>
			</data>
			<data key="d12">
				<y:GraphMLReference ResourceKey="14"/>
			</data>
		</edge>
		<edge id="e36" source="n1" target="n35" sourceport="p4" targetport="p1">
			<data key="d10">
				<x:List>
					<y:Label LayoutParameter="{y:GraphMLReference 13}">
						<y:Label.Text>0:1</y:Label.Text>
						<y:Label.Style>
							<yjs:DefaultLabelStyle textFill="BLACK">
								<yjs:DefaultLabelStyle.font>
									<yjs:Font fontSize="12"/>
								</yjs:DefaultLabelStyle.font>
							</yjs:DefaultLabelStyle>
						</y:Label.Style>
					</y:Label>
				</x:List>
			</data>
			<data key="d12">
				<y:GraphMLReference ResourceKey="14"/>
			</data>
		</edge>
		<edge id="e37" source="n7" target="n36" sourceport="p7" targetport="p0">
			<data key="d10">
				<x:List>
					<y:Label LayoutParameter="{y:GraphMLReference 13}">
						<y:Label.Text>0:N</y:Label.Text>
						<y:Label.Style>
							<yjs:DefaultLabelStyle textFill="BLACK">
								<yjs:DefaultLabelStyle.font>
									<yjs:Font fontSize="12"/>
								</yjs:DefaultLabelStyle.font>
							</yjs:DefaultLabelStyle>
						</y:Label.Style>
					</y:Label>
				</x:List>
			</data>
			<data key="d12">
				<y:GraphMLReference ResourceKey="14"/>
			</data>
		</edge>
		<edge id="e38" source="n2" target="n36" sourceport="p4" targetport="p1">
			<data key="d10">
				<x:List>
					<y:Label LayoutParameter="{y:GraphMLReference 13}">
						<y:Label.Text>0:1</y:Label.Text>
						<y:Label.Style>
							<yjs:DefaultLabelStyle textFill="BLACK">
								<yjs:DefaultLabelStyle.font>
									<yjs:Font fontSize="12"/>
								</yjs:DefaultLabelStyle.font>
							</yjs:DefaultLabelStyle>
						</y:Label.Style>
					</y:Label>
				</x:List>
			</data>
			<data key="d12">
				<y:GraphMLReference ResourceKey="14"/>
			</data>
		</edge>
	</graph>
</graphml>